{
    "page": 1,
    "total_results": 19841,
    "total_pages": 993,
    "results": [
        {
            "vote_count": 835,
            "id": 424783,
            "video": false,
            "vote_average": 6.5,
            "title": "Bumblebee",
            "popularity": 587.518,
            "poster_path": "/fw02ONlDhrYjTSZV8XO6hhU3ds3.jpg",
            "original_language": "en",
            "original_title": "Bumblebee",
            "genre_ids": [
                28,
                12,
                878
            ],
            "backdrop_path": "/hMANgfPHR1tRObNp2oPiOi9mMlz.jpg",
            "adult": false,
            "overview": "On the run in the year 1987, Bumblebee finds refuge in a junkyard in a small Californian beach town. Charlie, on the cusp of turning 18 and trying to find her place in the world, discovers Bumblebee, battle-scarred and broken.  When Charlie revives him, she quickly learns this is no ordinary yellow VW bug.",
            "release_date": "2018-12-15"
        },
        {
            "vote_count": 2742,
            "id": 297802,
            "video": false,
            "vote_average": 6.9,
            "title": "Aquaman",
            "popularity": 309.275,
            "poster_path": "/5Kg76ldv7VxeX9YlcQXiowHgdX6.jpg",
            "original_language": "en",
            "original_title": "Aquaman",
            "genre_ids": [
                28,
                14,
                878,
                12
            ],
            "backdrop_path": "/5A2bMlLfJrAfX9bqAibOL2gCruF.jpg",
            "adult": false,
            "overview": "Arthur Curry learns that he is the heir to the underwater kingdom of Atlantis, and must step forward to lead his people and be a hero to the world.",
            "release_date": "2018-12-07"
        },
        {
            "vote_count": 3760,
            "id": 424694,
            "video": false,
            "vote_average": 8.2,
            "title": "Bohemian Rhapsody",
            "popularity": 292.942,
            "poster_path": "/lHu1wtNaczFPGFDTrjCSzeLPTKN.jpg",
            "original_language": "en",
            "original_title": "Bohemian Rhapsody",
            "genre_ids": [
                18,
                10402
            ],
            "backdrop_path": "/pbXgLEYh8rlG2Km5IGZPnhcnuSz.jpg",
            "adult": false,
            "overview": "Singer Freddie Mercury, guitarist Brian May, drummer Roger Taylor and bass guitarist John Deacon take the music world by storm when they form the rock 'n' roll band Queen in 1970. Hit songs become instant classics. When Mercury's increasingly wild lifestyle starts to spiral out of control, Queen soon faces its greatest challenge yet – finding a way to keep the band together amid the success and excess.",
            "release_date": "2018-10-24"
        },
        {
            "vote_count": 175,
            "id": 504172,
            "video": false,
            "vote_average": 6.1,
            "title": "The Mule",
            "popularity": 265.668,
            "poster_path": "/t0idiLMalKMj2pLsvqHrOM4LPdQ.jpg",
            "original_language": "en",
            "original_title": "The Mule",
            "genre_ids": [
                80,
                18,
                53
            ],
            "backdrop_path": "/bkc4AY6FTa3yNqrshE9b1elDzPt.jpg",
            "adult": false,
            "overview": "A 90 year old horticulturalist and Korean War veteran is caught transporting $3 million worth of cocaine through Illinois for a Mexican drug cartel.",
            "release_date": "2018-12-14"
        },
        {
            "vote_count": 397,
            "id": 450465,
            "video": false,
            "vote_average": 6.9,
            "title": "Glass",
            "popularity": 211.433,
            "poster_path": "/aG5GS0V15Zpk8zvsww02faNT0QI.jpg",
            "original_language": "en",
            "original_title": "Glass",
            "genre_ids": [
                53,
                27,
                9648,
                18
            ],
            "backdrop_path": "/ngBFDOsx13sFXiMweDoL54XYknR.jpg",
            "adult": false,
            "overview": "Following the conclusion of Split, Glass finds David Dunn pursuing Kevin Wendell Crumb’s superhuman figure of The Beast in a series of escalating encounters, while the shadowy presence of Elijah Price emerges as an orchestrator who holds secrets critical to both men.",
            "release_date": "2019-01-16"
        },
        {
            "vote_count": 2730,
            "id": 332562,
            "video": false,
            "vote_average": 7.5,
            "title": "A Star Is Born",
            "popularity": 198.822,
            "poster_path": "/wrFpXMNBRj2PBiN4Z5kix51XaIZ.jpg",
            "original_language": "en",
            "original_title": "A Star Is Born",
            "genre_ids": [
                18,
                10402,
                10749
            ],
            "backdrop_path": "/wqtaHWOEZ3rXDJ8c6ZZShulbo18.jpg",
            "adult": false,
            "overview": "Seasoned musician Jackson Maine discovers—and falls in love with—struggling artist Ally. She has just about given up on her dream to make it big as a singer—until Jack coaxes her into the spotlight. But even as Ally's career takes off, the personal side of their relationship is breaking down, as Jack fights an ongoing battle with his own internal demons.",
            "release_date": "2018-10-03"
        },
        {
            "vote_count": 73,
            "id": 567604,
            "video": false,
            "vote_average": 7.1,
            "title": "Once Upon a Deadpool",
            "popularity": 198.435,
            "poster_path": "/5Ka49BWWyKMXr93YMbH5wLN7aAM.jpg",
            "original_language": "en",
            "original_title": "Once Upon a Deadpool",
            "genre_ids": [
                35,
                28
            ],
            "backdrop_path": "/7RqpTZq0mPpTcEwZ6qqwRZAFoLe.jpg",
            "adult": false,
            "overview": "A kidnapped Fred Savage is forced to endure Deadpool's PG-13 rendition of Deadpool 2 as a Princess Bride-esque story that's full of magic, wonder & zero F's.",
            "release_date": "2018-12-11"
        },
        {
            "vote_count": 651,
            "id": 400650,
            "video": false,
            "vote_average": 6.8,
            "title": "Mary Poppins Returns",
            "popularity": 191.384,
            "poster_path": "/uTVGku4LibMGyKgQvjBtv3OYfAX.jpg",
            "original_language": "en",
            "original_title": "Mary Poppins Returns",
            "genre_ids": [
                14,
                10751,
                35
            ],
            "backdrop_path": "/cwiJQXezWz876K3jS57Sq56RYCZ.jpg",
            "adult": false,
            "overview": "In Depression-era London, a now-grown Jane and Michael Banks, along with Michael's three children, are visited by the enigmatic Mary Poppins following a personal loss. Through her unique magical skills, and with the aid of her friend Jack, she helps the family rediscover the joy and wonder missing in their lives.",
            "release_date": "2018-12-19"
        },
        {
            "vote_count": 636,
            "id": 480530,
            "video": false,
            "vote_average": 6.5,
            "title": "Creed II",
            "popularity": 189.607,
            "poster_path": "/v3QyboWRoA4O9RbcsqH8tJMe8EB.jpg",
            "original_language": "en",
            "original_title": "Creed II",
            "genre_ids": [
                18,
                28
            ],
            "backdrop_path": "/8yqLPNwNCtpOPc3XkOlkSMnghzw.jpg",
            "adult": false,
            "overview": "Follows Adonis Creed's life inside and outside of the ring as he deals with new found fame, issues with his family, and his continuing quest to become a champion.",
            "release_date": "2018-11-21"
        },
        {
            "vote_count": 295,
            "id": 399402,
            "video": false,
            "vote_average": 5.8,
            "title": "Hunter Killer",
            "popularity": 174.116,
            "poster_path": "/a0j18XNVhP4RcW3wXwsqT0kVoQm.jpg",
            "original_language": "en",
            "original_title": "Hunter Killer",
            "genre_ids": [
                28,
                53
            ],
            "backdrop_path": "/hE6Jh9FJiBrakHcT3vmWxM0GVpv.jpg",
            "adult": false,
            "overview": "An untested American submarine captain teams with U.S. Navy SEALs to rescue the Russian president, who has been kidnapped by a rogue general.",
            "release_date": "2018-10-19"
        },
        {
            "vote_count": 1237,
            "id": 324857,
            "video": false,
            "vote_average": 8.5,
            "title": "Spider-Man: Into the Spider-Verse",
            "popularity": 173.216,
            "poster_path": "/laMM4lpQSh5z6KIBPwWogkjzBVQ.jpg",
            "original_language": "en",
            "original_title": "Spider-Man: Into the Spider-Verse",
            "genre_ids": [
                28,
                12,
                16,
                878,
                35
            ],
            "backdrop_path": "/7d6EY00g1c39SGZOoCJ5Py9nNth.jpg",
            "adult": false,
            "overview": "Miles Morales is juggling his life between being a high school student and being a spider-man. When Wilson \"Kingpin\" Fisk uses a super collider, others from across the Spider-Verse are transported to this dimension.",
            "release_date": "2018-12-07"
        },
        {
            "vote_count": 195,
            "id": 503314,
            "video": false,
            "vote_average": 7.3,
            "title": "Dragon Ball Super: Broly",
            "popularity": 167.179,
            "poster_path": "/f03YksE4NggUjG75toz4H1YAGRf.jpg",
            "original_language": "ja",
            "original_title": "ドラゴンボール超スーパー ブロリー",
            "genre_ids": [
                28,
                16,
                878
            ],
            "backdrop_path": "/6OTRuxpwUUGbmCX3MKP25dOmo59.jpg",
            "adult": false,
            "overview": "Earth is peaceful following the Tournament of Power. Realizing that the universes still hold many more strong people yet to see, Goku spends all his days training to reach even greater heights. Then one day, Goku and Vegeta are faced by a Saiyan called 'Broly' who they've never seen before. The Saiyans were supposed to have been almost completely wiped out in the destruction of Planet Vegeta, so what's this one doing on Earth? This encounter between the three Saiyans who have followed completely different destinies turns into a stupendous battle, with even Frieza (back from Hell) getting caught up in the mix.",
            "release_date": "2018-12-14"
        },
        {
            "vote_count": 186,
            "id": 446807,
            "video": false,
            "vote_average": 5.7,
            "title": "The Girl in the Spider's Web",
            "popularity": 162.97,
            "poster_path": "/w4ibr8R702DCjwYniry1D1XwQXj.jpg",
            "original_language": "en",
            "original_title": "The Girl in the Spider's Web",
            "genre_ids": [
                18,
                53,
                9648,
                80,
                28
            ],
            "backdrop_path": "/r0ljJIPBGsGdpeDdlHpzCiNnxiB.jpg",
            "adult": false,
            "overview": "In Stockholm, Sweden, hacker Lisbeth Salander is hired by Frans Balder, a computer engineer, to retrieve a program that he believes it is too dangerous to exist.",
            "release_date": "2018-10-26"
        },
        {
            "vote_count": 3099,
            "id": 405774,
            "video": false,
            "vote_average": 7.1,
            "title": "Bird Box",
            "popularity": 152.517,
            "poster_path": "/rGfGfgL2pEPCfhIvqHXieXFn7gp.jpg",
            "original_language": "en",
            "original_title": "Bird Box",
            "genre_ids": [
                53,
                18,
                878,
                27
            ],
            "backdrop_path": "/A4xNxrRodvXzJWJs2GbBKo1IBk2.jpg",
            "adult": false,
            "overview": "When a mysterious force decimates the world’s population, only one thing is certain: if you see it, you take your life. Facing the unknown, Malorie finds love, hope and a new beginning only for it to unravel. Now she must flee with her two children down a treacherous river to the one place left that may offer sanctuary. But to survive, they'll have to undertake the perilous two-day journey blindfolded.",
            "release_date": "2018-12-13"
        },
        {
            "vote_count": 6,
            "id": 390634,
            "video": false,
            "vote_average": 5.1,
            "title": "Fate/stay night: Heaven’s Feel II. lost butterfly",
            "popularity": 151.682,
            "poster_path": "/t0jwlwFUrtkPJoq5JH9YrRVROXZ.jpg",
            "original_language": "ja",
            "original_title": "劇場版「Fate/stay night [Heaven's Feel] ⅠⅠ. lost butterfly」",
            "genre_ids": [
                16,
                28,
                14
            ],
            "backdrop_path": "/3haESpzscyP1pLl2BxQ9j5KK9cM.jpg",
            "adult": false,
            "overview": "Theatrical-release adaptation of the visual novel \"Fate/stay night\", following the third and final route. (Part 2 of a trilogy.)",
            "release_date": "2019-01-12"
        },
        {
            "vote_count": 51,
            "id": 166428,
            "video": false,
            "vote_average": 8.6,
            "title": "How to Train Your Dragon: The Hidden World",
            "popularity": 146.509,
            "poster_path": "/ij0xoc13hGhrYIlXGGuPXWTh3vi.jpg",
            "original_language": "en",
            "original_title": "How to Train Your Dragon: The Hidden World",
            "genre_ids": [
                16,
                10751,
                12
            ],
            "backdrop_path": "/xt1eGafwaY42gBvYCUqXQrjUVjw.jpg",
            "adult": false,
            "overview": "As Hiccup fulfills his dream of creating a peaceful dragon utopia, Toothless’ discovery of an untamed, elusive mate draws the Night Fury away.  When danger mounts at home and Hiccup’s reign as village chief is tested, both dragon and rider must make impossible decisions to save their kind.",
            "release_date": "2019-01-03"
        },
        {
            "vote_count": 4405,
            "id": 335983,
            "video": false,
            "vote_average": 6.6,
            "title": "Venom",
            "popularity": 143.791,
            "poster_path": "/2uNW4WbgBXL25BAbXGLnLqX71Sw.jpg",
            "original_language": "en",
            "original_title": "Venom",
            "genre_ids": [
                878,
                28
            ],
            "backdrop_path": "/VuukZLgaCrho2Ar8Scl9HtV3yD.jpg",
            "adult": false,
            "overview": "Investigative journalist Eddie Brock attempts a comeback following a scandal, but accidentally becomes the host of Venom, a violent, super powerful alien symbiote. Soon, he must rely on his newfound powers to protect the world from a shadowy organization looking for a symbiote of their own.",
            "release_date": "2018-09-28"
        },
        {
            "vote_count": 43,
            "id": 426563,
            "video": false,
            "vote_average": 4.3,
            "title": "Holmes & Watson",
            "popularity": 128.353,
            "poster_path": "/gY4ziK7sjmNbsoBnTbhqC3SkGoE.jpg",
            "original_language": "en",
            "original_title": "Holmes & Watson",
            "genre_ids": [
                9648,
                12,
                35,
                80
            ],
            "backdrop_path": "/pikYQjSIHP96Zidprp9ngG8YmYJ.jpg",
            "adult": false,
            "overview": "Detective Sherlock Holmes and Dr. John Watson join forces to investigate a murder at Buckingham Palace. They soon learn that they have only four days to solve the case, or the queen will become the next victim.",
            "release_date": "2018-12-25"
        },
        {
            "vote_count": 890,
            "id": 404368,
            "video": false,
            "vote_average": 7.4,
            "title": "Ralph Breaks the Internet",
            "popularity": 124.94,
            "poster_path": "/lvfIaThG5HA8THf76nghKinjjji.jpg",
            "original_language": "en",
            "original_title": "Ralph Breaks the Internet",
            "genre_ids": [
                10751,
                16,
                35,
                14
            ],
            "backdrop_path": "/88poTBTafMXaz73vYi3c74g0y2k.jpg",
            "adult": false,
            "overview": "Six years after the events of \"Wreck-It Ralph,\" Ralph and Vanellope, now friends, discover a wi-fi router in their arcade, leading them into a new adventure.",
            "release_date": "2018-11-20"
        },
        {
            "vote_count": 42,
            "id": 487672,
            "video": false,
            "vote_average": 6.9,
            "title": "Reign of the Supermen",
            "popularity": 123.981,
            "poster_path": "/jKqe91SItNh7NWs52yiu8xNOFsj.jpg",
            "original_language": "en",
            "original_title": "Reign of the Supermen",
            "genre_ids": [
                16,
                28,
                878
            ],
            "backdrop_path": "/cdCMUHWyXBOsbLL4dOEPdCEtwM4.jpg",
            "adult": false,
            "overview": "In the wake of The Death of Superman, the world is still mourning the loss of the Man of Steel following his fatal battle with the monster Doomsday. However, no sooner as his body been laid to rest than do four new bearers of the Superman shield come forward to take on the mantle. The Last Son of Krypton, Superboy, Steel, and the Cyborg Superman all attempt to fill the vacuum left by the world's greatest champion. Meanwhile, Superman's death has also signaled to the universe that Earth is vulnerable. Can these new Supermen and the rest of the heroes prove them wrong?",
            "release_date": "2019-01-13"
        }
    ]
}